%YAML 1.1
%TAG !u! tag:unity3d.com,2011:
--- !u!114 &11400000
MonoBehaviour:
  m_ObjectHideFlags: 0
  m_CorrespondingSourceObject: {fileID: 0}
  m_PrefabInstance: {fileID: 0}
  m_PrefabAsset: {fileID: 0}
  m_GameObject: {fileID: 0}
  m_Enabled: 1
  m_EditorHideFlags: 0
  m_Script: {fileID: 11500000, guid: 34a7c8ca992f915438a96c2077353778, type: 3}
  m_Name: CopBehavior
  m_EditorClassIdentifier: 
  brickName: Assets/Arts/Logica BT/CopBehavior.asset
  xml: "\uFEFF<?xml version=\"1.0\" encoding=\"utf-8\"?>\n<BehaviorBricks xmlns:ref=\"urn:padaone\"
    version=\"1.0\">\n  <BehaviorTree id=\"0\" />\n  <runtimeInfo>\n    <BehaviorTree
    id=\"0\" guid=\"14e7c3cda29d144b5af4d434b02f998e\" nextId=\"24\">\n      <root>\n       
    <SequenceNode id=\"23\" />\n      </root>\n      <inputParams>\n        <inputValues>\n         
    <entry name=\"player\" type=\"UnityEngine.GameObject\" isBlackboard=\"False\"
    />\n          <entry name=\"wanderArea\" type=\"UnityEngine.GameObject\" isBlackboard=\"False\"
    />\n        </inputValues>\n      </inputParams>\n      <outputParams />\n     
    <localParams />\n    </BehaviorTree>\n    <SequenceNode id=\"23\">\n      <children>\n       
    <elem>\n          <RepeatUntilSuccess id=\"22\" />\n        </elem>\n      </children>\n     
    <inputParams />\n      <outputParams />\n      <localParams />\n    </SequenceNode>\n   
    <RepeatUntilSuccess id=\"22\">\n      <child>\n        <PrioritySelectorNode
    id=\"1\" />\n      </child>\n      <inputParams />\n      <outputParams />\n     
    <localParams />\n    </RepeatUntilSuccess>\n    <PrioritySelectorNode id=\"1\">\n     
    <children>\n        <elem>\n          <GuardAndNode>\n            <guard>\n             
    <ConditionEvalNode id=\"19\" />\n            </guard>\n            <child>\n             
    <ActionNode id=\"2\" />\n            </child>\n          </GuardAndNode>\n       
    </elem>\n        <elem>\n          <GuardAndNode>\n            <guard>\n             
    <ConditionEvalNode id=\"20\" />\n            </guard>\n            <child>\n             
    <SubbehaviorNode id=\"17\" />\n            </child>\n          </GuardAndNode>\n       
    </elem>\n      </children>\n      <inputParams />\n      <outputParams />\n     
    <localParams />\n    </PrioritySelectorNode>\n    <ConditionEvalNode id=\"19\"
    policy=\"WAIT_UNTIL_FALSE_AND_FAIL\" name=\"Perception/IsTargetClose\">\n     
    <inputParams>\n        <inputValues>\n          <entry name=\"target\" type=\"UnityEngine.GameObject\"
    isBlackboard=\"True\" blackboard=\"player\" />\n          <entry name=\"closeDistance\"
    type=\"System.Single\" isBlackboard=\"False\" value=\"10\" />\n        </inputValues>\n     
    </inputParams>\n      <outputParams />\n      <localParams />\n    </ConditionEvalNode>\n   
    <ActionNode id=\"2\" action=\"Navigation/MoveToGameObject\">\n      <inputParams>\n       
    <inputValues>\n          <entry name=\"target\" type=\"UnityEngine.GameObject\"
    isBlackboard=\"True\" blackboard=\"player\" />\n        </inputValues>\n     
    </inputParams>\n      <outputParams />\n      <localParams />\n    </ActionNode>\n   
    <ConditionEvalNode id=\"20\" policy=\"WAIT_UNTIL_FALSE_AND_FAIL\" name=\"AlwaysTrue\">\n     
    <inputParams />\n      <outputParams />\n      <localParams />\n    </ConditionEvalNode>\n   
    <SubbehaviorNode id=\"17\">\n      <_guid>8adfddffa70852a45ba1b64354494e3c</_guid>\n     
    <inputParams>\n        <inputValues>\n          <entry name=\"wanderArea\" type=\"UnityEngine.GameObject\"
    isBlackboard=\"True\" blackboard=\"wanderArea\" />\n        </inputValues>\n     
    </inputParams>\n      <outputParams />\n      <localParams />\n    </SubbehaviorNode>\n 
    </runtimeInfo>\n  <editorInfo>\n    <BehaviorTree id=\"0\" _name=\"CopBehavior\"
    _description=\"Moves towards a particular Game Object if it's close to it, otherwise
    wanders around an area.\" _removeIfClosed=\"False\">\n      <_rootList>\n       
    <elem>\n          <ConditionEvalNode id=\"19\" />\n        </elem>\n        <elem>\n         
    <ConditionEvalNode id=\"20\" />\n        </elem>\n        <elem>\n          <RepeatUntilSuccess
    id=\"22\" />\n        </elem>\n        <elem>\n          <SequenceNode id=\"23\"
    />\n        </elem>\n      </_rootList>\n      <_nodes>\n        <nodes>\n         
    <PrioritySelectorNode id=\"1\" />\n          <ActionNode id=\"2\" />\n         
    <ConditionEvalNode id=\"20\" />\n          <SequenceNode id=\"23\" />\n         
    <SubbehaviorNode id=\"17\" />\n          <ConditionEvalNode id=\"19\" />\n         
    <RepeatUntilSuccess id=\"22\" />\n        </nodes>\n      </_nodes>\n    </BehaviorTree>\n   
    <SequenceNode id=\"23\">\n      <_data>\n        <data breakpoint=\"0\" selected=\"False\"
    position=\"458 100\" name=\"Sequence\" description=\"Executes all its children
    in sequence until all of them are successful\" cardinality=\"-1\" hasParent=\"False\">\n         
    <BehaviorTree id=\"0\" />\n          <SequenceNode id=\"23\" />\n        </data>\n     
    </_data>\n    </SequenceNode>\n    <RepeatUntilSuccess id=\"22\">\n      <_data>\n       
    <data breakpoint=\"0\" selected=\"False\" position=\"128 284\" name=\"Repeat
    Until Success\" description=\"Repeats the execution of its child node until it
    success\" cardinality=\"1\" hasParent=\"True\">\n          <BehaviorTree id=\"0\"
    />\n          <RepeatUntilSuccess id=\"22\" />\n          <SequenceNode id=\"23\"
    />\n        </data>\n      </_data>\n    </RepeatUntilSuccess>\n    <PrioritySelectorNode
    id=\"1\">\n      <_data>\n        <data breakpoint=\"0\" selected=\"False\" position=\"106.8167
    454.8412\" name=\"Priority Selector\" description=\"Executes all its children,
    starting from the one with the highest priority, until one of them is successful\"
    cardinality=\"-1\" hasParent=\"True\">\n          <BehaviorTree id=\"0\" />\n         
    <PrioritySelectorNode id=\"1\" />\n          <RepeatUntilSuccess id=\"22\" />\n       
    </data>\n      </_data>\n    </PrioritySelectorNode>\n    <ConditionEvalNode
    id=\"19\">\n      <_data>\n        <data breakpoint=\"0\" selected=\"False\"
    position=\"-6.433441 599.6627\" name=\"Perception/IsTargetClose\" description=\"Eval\"
    cardinality=\"1\" hasParent=\"True\">\n          <BehaviorTree id=\"0\" />\n         
    <ConditionEvalNode id=\"19\" />\n          <PrioritySelectorNode id=\"1\" />\n       
    </data>\n      </_data>\n    </ConditionEvalNode>\n    <ActionNode id=\"2\">\n     
    <_data>\n        <data breakpoint=\"0\" selected=\"False\" position=\"-6.433441
    599.6627\" name=\"Navigation/MoveToGameObject\" description=\"Moves the game
    object towards a given target by using a NavMeshAgent\" cardinality=\"0\" hasParent=\"True\">\n         
    <BehaviorTree id=\"0\" />\n          <ActionNode id=\"2\" />\n          <ConditionEvalNode
    id=\"3\" />\n        </data>\n      </_data>\n    </ActionNode>\n    <ConditionEvalNode
    id=\"20\">\n      <_data>\n        <data breakpoint=\"0\" selected=\"False\"
    position=\"261.8174 598.7626\" name=\"AlwaysTrue\" description=\"Eval\" cardinality=\"1\"
    hasParent=\"True\">\n          <BehaviorTree id=\"0\" />\n          <ConditionEvalNode
    id=\"20\" />\n          <PrioritySelectorNode id=\"1\" />\n        </data>\n     
    </_data>\n    </ConditionEvalNode>\n    <SubbehaviorNode id=\"17\" _name=\"DoneWander\">\n     
    <_data>\n        <data breakpoint=\"0\" selected=\"False\" position=\"261.8174
    598.7626\" name=\"QuickStartGuide/DoneWander\" description=\"DoneWander\" cardinality=\"0\"
    hasParent=\"True\">\n          <BehaviorTree id=\"0\" />\n          <SubbehaviorNode
    id=\"17\" />\n          <ConditionEvalNode id=\"18\" />\n        </data>\n     
    </_data>\n    </SubbehaviorNode>\n  </editorInfo>\n  <runtimeInfo>\n    <ConditionEvalNode
    id=\"3\" policy=\"WAIT_UNTIL_TRUE_AND_COMPLETE\" name=\"Perception/IsTargetClose\">\n     
    <inputParams>\n        <inputValues>\n          <entry name=\"target\" type=\"UnityEngine.GameObject\"
    isBlackboard=\"True\" blackboard=\"player\" />\n          <entry name=\"closeDistance\"
    type=\"System.Single\" isBlackboard=\"False\" value=\"15\" />\n        </inputValues>\n     
    </inputParams>\n      <outputParams />\n      <localParams />\n    </ConditionEvalNode>\n   
    <ConditionEvalNode id=\"18\" policy=\"WAIT_UNTIL_FALSE_AND_FAIL\" name=\"AlwaysTrue\">\n     
    <inputParams />\n      <outputParams />\n      <localParams />\n    </ConditionEvalNode>\n 
    </runtimeInfo>\n  <editorInfo>\n    <ConditionEvalNode id=\"3\">\n      <_data>\n       
    <data breakpoint=\"0\" selected=\"False\" position=\"223.375 54\" name=\"Perception/IsTargetClose\"
    description=\"Checks whether a target is close depending on a given distance\"
    cardinality=\"0\" hasParent=\"False\">\n          <BehaviorTree id=\"3\" />\n       
    </data>\n      </_data>\n    </ConditionEvalNode>\n    <ConditionEvalNode id=\"18\">\n     
    <_data>\n        <data breakpoint=\"0\" selected=\"False\" position=\"48.375
    50\" name=\"AlwaysTrue\" description=\"\" cardinality=\"0\" hasParent=\"False\">\n         
    <BehaviorTree id=\"18\" />\n        </data>\n      </_data>\n    </ConditionEvalNode>\n 
    </editorInfo>\n  <runtimeInfo>\n    <BehaviorTree id=\"3\" nextId=\"1\">\n     
    <inputParams />\n      <outputParams />\n      <localParams />\n    </BehaviorTree>\n   
    <BehaviorTree id=\"18\" nextId=\"1\">\n      <inputParams />\n      <outputParams
    />\n      <localParams />\n    </BehaviorTree>\n  </runtimeInfo>\n  <editorInfo>\n   
    <BehaviorTree id=\"3\" _removeIfClosed=\"False\">\n      <_rootList />\n     
    <_nodes>\n        <nodes />\n      </_nodes>\n    </BehaviorTree>\n    <BehaviorTree
    id=\"18\" _removeIfClosed=\"False\">\n      <_rootList />\n      <_nodes>\n       
    <nodes />\n      </_nodes>\n    </BehaviorTree>\n  </editorInfo>\n</BehaviorBricks>"
  zoom: 0.5
  subslist:
  - {fileID: 11400000, guid: 8adfddffa70852a45ba1b64354494e3c, type: 2}
  _guid: 14e7c3cda29d144b5af4d434b02f998e
